<?xml version="1.0" encoding="UTF-8" standalone="no"?>
<svg width="24px" height="24px" viewBox="0 0 24 24" version="1.1" xmlns="http://www.w3.org/2000/svg" xmlns:xlink="http://www.w3.org/1999/xlink">
    <!-- Generator: Sketch 45.1 (43504) - http://www.bohemiancoding.com/sketch -->
    <title>icons/vid-play</title>
    <desc>Created with Sketch.</desc>
    <defs></defs>
    <g id="Global" stroke="none" stroke-width="1" fill="none" fill-rule="evenodd">
        <g id="icons/vid-play" fill="#42526E">
            <path d="M8.79109287,4.59668533 C8.35418434,4.26714512 8,4.44463086 8,5.00087166 L8,18.9991283 C8,19.5518945 8.36598969,19.7437007 8.82678783,19.4210079 L18.1732122,12.8757912 C18.6298345,12.5560227 18.6464688,12.0301467 18.2089071,11.7001138 L8.79109287,4.59668533 Z" id="Page-1"></path>
        </g>
    </g>
</svg>